{"attributes":{"fieldFormatMap":"{\"Jobs\":{\"id\":\"number\",\"params\":{\"parsedUrl\":{\"origin\":\"https://es-lhcb-dirac1.cern.ch\",\"pathname\":\"/kibana/app/home\",\"basePath\":\"/kibana\"},\"pattern\":\"0,0.[]\"}}}","fields":"[{\"count\":0,\"name\":\"ApplicationStatus\",\"type\":\"string\",\"esTypes\":[\"keyword\"],\"scripted\":false,\"searchable\":true,\"aggregatable\":true,\"readFromDocValues\":true},{\"count\":0,\"name\":\"JobGroup\",\"type\":\"string\",\"esTypes\":[\"keyword\"],\"scripted\":false,\"searchable\":true,\"aggregatable\":true,\"readFromDocValues\":true},{\"count\":0,\"name\":\"JobSplitType\",\"type\":\"string\",\"esTypes\":[\"keyword\"],\"scripted\":false,\"searchable\":true,\"aggregatable\":true,\"readFromDocValues\":true},{\"count\":0,\"name\":\"Jobs\",\"type\":\"number\",\"esTypes\":[\"long\"],\"scripted\":false,\"searchable\":true,\"aggregatable\":true,\"readFromDocValues\":true},{\"count\":0,\"name\":\"MinorStatus\",\"type\":\"string\",\"esTypes\":[\"keyword\"],\"scripted\":false,\"searchable\":true,\"aggregatable\":true,\"readFromDocValues\":true},{\"count\":0,\"name\":\"Reschedules\",\"type\":\"number\",\"esTypes\":[\"long\"],\"scripted\":false,\"searchable\":true,\"aggregatable\":true,\"readFromDocValues\":true},{\"count\":0,\"name\":\"Site\",\"type\":\"string\",\"esTypes\":[\"keyword\"],\"scripted\":false,\"searchable\":true,\"aggregatable\":true,\"readFromDocValues\":true},{\"count\":0,\"name\":\"Status\",\"type\":\"string\",\"esTypes\":[\"keyword\"],\"scripted\":false,\"searchable\":true,\"aggregatable\":true,\"readFromDocValues\":true},{\"count\":0,\"name\":\"User\",\"type\":\"string\",\"esTypes\":[\"keyword\"],\"scripted\":false,\"searchable\":true,\"aggregatable\":true,\"readFromDocValues\":true},{\"count\":0,\"name\":\"UserGroup\",\"type\":\"string\",\"esTypes\":[\"keyword\"],\"scripted\":false,\"searchable\":true,\"aggregatable\":true,\"readFromDocValues\":true},{\"count\":0,\"name\":\"_id\",\"type\":\"string\",\"esTypes\":[\"_id\"],\"scripted\":false,\"searchable\":true,\"aggregatable\":true,\"readFromDocValues\":false},{\"count\":0,\"name\":\"_index\",\"type\":\"string\",\"esTypes\":[\"_index\"],\"scripted\":false,\"searchable\":true,\"aggregatable\":true,\"readFromDocValues\":false},{\"count\":0,\"name\":\"_score\",\"type\":\"number\",\"scripted\":false,\"searchable\":false,\"aggregatable\":false,\"readFromDocValues\":false},{\"count\":0,\"name\":\"_source\",\"type\":\"_source\",\"esTypes\":[\"_source\"],\"scripted\":false,\"searchable\":false,\"aggregatable\":false,\"readFromDocValues\":false},{\"count\":0,\"name\":\"_type\",\"type\":\"string\",\"esTypes\":[\"_type\"],\"scripted\":false,\"searchable\":true,\"aggregatable\":true,\"readFromDocValues\":false},{\"count\":0,\"name\":\"timestamp\",\"type\":\"date\",\"esTypes\":[\"date\"],\"scripted\":false,\"searchable\":true,\"aggregatable\":true,\"readFromDocValues\":true}]","timeFieldName":"timestamp","title":"lhcb-production_wmshistory_index-*"},"id":"3051bc00-7a09-11ec-8e72-eb1fcffe7c39","migrationVersion":{"index-pattern":"7.6.0"},"references":[],"type":"index-pattern","updated_at":"2022-01-26T08:49:25.186Z","version":"WzQxNjIsMV0="}
{"attributes":{"description":"","kibanaSavedObjectMeta":{"searchSourceJSON":"{\"query\":{\"query\":\"\",\"language\":\"kuery\"},\"filter\":[{\"$state\":{\"store\":\"appState\"},\"meta\":{\"alias\":null,\"controlledBy\":\"1643018695294\",\"disabled\":false,\"key\":\"Status\",\"negate\":false,\"params\":{\"query\":\"Running\"},\"type\":\"phrase\",\"indexRefName\":\"kibanaSavedObjectMeta.searchSourceJSON.filter[0].meta.index\"},\"query\":{\"match_phrase\":{\"Status\":\"Running\"}}}]}"},"title":"Status selection","uiStateJSON":"{}","version":1,"visState":"{\"title\":\"Status selection\",\"type\":\"input_control_vis\",\"aggs\":[],\"params\":{\"controls\":[{\"id\":\"1643018695294\",\"fieldName\":\"Status\",\"parent\":\"\",\"label\":\"Status\",\"type\":\"list\",\"options\":{\"type\":\"terms\",\"multiselect\":true,\"dynamicOptions\":true,\"size\":5,\"order\":\"desc\"},\"indexPatternRefName\":\"control_0_index_pattern\"}],\"updateFiltersOnChange\":false,\"useTimeFilter\":false,\"pinFilters\":false}}"},"id":"54e24d90-7cfd-11ec-bb0f-93c2814a29e5","migrationVersion":{"visualization":"7.10.0"},"references":[{"id":"3051bc00-7a09-11ec-8e72-eb1fcffe7c39","name":"kibanaSavedObjectMeta.searchSourceJSON.filter[0].meta.index","type":"index-pattern"},{"id":"3051bc00-7a09-11ec-8e72-eb1fcffe7c39","name":"control_0_index_pattern","type":"index-pattern"}],"type":"visualization","updated_at":"2022-01-26T08:24:40.055Z","version":"WzM4NTAsMV0="}
{"attributes":{"description":"","kibanaSavedObjectMeta":{"searchSourceJSON":"{\"query\":{\"query\":\"\",\"language\":\"kuery\"},\"filter\":[],\"indexRefName\":\"kibanaSavedObjectMeta.searchSourceJSON.index\"}"},"title":"Jobs per state","uiStateJSON":"{}","version":1,"visState":"{\"title\":\"Jobs per state\",\"type\":\"metric\",\"aggs\":[{\"id\":\"1\",\"enabled\":true,\"type\":\"avg_bucket\",\"params\":{\"customBucket\":{\"id\":\"1-bucket\",\"enabled\":true,\"type\":\"date_histogram\",\"params\":{\"field\":\"timestamp\",\"useNormalizedEsInterval\":true,\"scaleMetricValues\":true,\"interval\":\"15m\",\"drop_partials\":false,\"min_doc_count\":1,\"extended_bounds\":{}}},\"customMetric\":{\"id\":\"1-metric\",\"enabled\":true,\"type\":\"sum\",\"params\":{\"field\":\"Jobs\"}},\"json\":\"\",\"customLabel\":\"Average Number of Jobs per Selected Status\"},\"schema\":\"metric\"}],\"params\":{\"addTooltip\":true,\"addLegend\":false,\"type\":\"metric\",\"metric\":{\"percentageMode\":false,\"useRanges\":false,\"colorSchema\":\"Green to Red\",\"metricColorMode\":\"None\",\"colorsRange\":[{\"from\":0,\"to\":10000}],\"labels\":{\"show\":true},\"invertColors\":false,\"style\":{\"bgFill\":\"#000\",\"bgColor\":false,\"labelColor\":false,\"subText\":\"\",\"fontSize\":55}}}}"},"id":"f6c07830-7d2a-11ec-8e72-eb1fcffe7c39","migrationVersion":{"visualization":"7.10.0"},"references":[{"id":"3051bc00-7a09-11ec-8e72-eb1fcffe7c39","name":"kibanaSavedObjectMeta.searchSourceJSON.index","type":"index-pattern"}],"type":"visualization","updated_at":"2022-01-26T09:18:18.686Z","version":"WzQzNjUsMV0="}
{"attributes":{"description":"","kibanaSavedObjectMeta":{"searchSourceJSON":"{\"query\":{\"query\":\"\",\"language\":\"kuery\"},\"filter\":[{\"$state\":{\"store\":\"appState\"},\"meta\":{\"alias\":null,\"disabled\":false,\"key\":\"User\",\"negate\":true,\"params\":{\"query\":\"fstagni\"},\"type\":\"phrase\",\"indexRefName\":\"kibanaSavedObjectMeta.searchSourceJSON.filter[0].meta.index\"},\"query\":{\"match_phrase\":{\"User\":\"fstagni\"}}}],\"indexRefName\":\"kibanaSavedObjectMeta.searchSourceJSON.index\"}"},"title":"Jobs by User (No fstagni)","uiStateJSON":"{}","version":1,"visState":"{\"title\":\"Jobs by User (No fstagni)\",\"type\":\"line\",\"aggs\":[{\"id\":\"1\",\"enabled\":true,\"type\":\"sum\",\"params\":{\"field\":\"Jobs\"},\"schema\":\"metric\"},{\"id\":\"2\",\"enabled\":true,\"type\":\"date_histogram\",\"params\":{\"field\":\"timestamp\",\"timeRange\":{\"from\":\"2022-01-09T23:00:00.000Z\",\"to\":\"2022-01-16T23:00:00.000Z\"},\"useNormalizedEsInterval\":true,\"scaleMetricValues\":true,\"interval\":\"15m\",\"drop_partials\":false,\"min_doc_count\":1,\"extended_bounds\":{},\"customLabel\":\"Timestamp\"},\"schema\":\"segment\"},{\"id\":\"3\",\"enabled\":true,\"type\":\"terms\",\"params\":{\"field\":\"User\",\"orderBy\":\"1\",\"order\":\"desc\",\"size\":100,\"otherBucket\":false,\"otherBucketLabel\":\"Other\",\"missingBucket\":false,\"missingBucketLabel\":\"Missing\",\"customLabel\":\"\"},\"schema\":\"group\"}],\"params\":{\"type\":\"line\",\"grid\":{\"categoryLines\":false,\"valueAxis\":\"ValueAxis-1\"},\"categoryAxes\":[{\"id\":\"CategoryAxis-1\",\"type\":\"category\",\"position\":\"bottom\",\"show\":true,\"style\":{},\"scale\":{\"type\":\"linear\"},\"labels\":{\"show\":true,\"filter\":true,\"truncate\":100},\"title\":{}}],\"valueAxes\":[{\"id\":\"ValueAxis-1\",\"name\":\"LeftAxis-1\",\"type\":\"value\",\"position\":\"left\",\"show\":true,\"style\":{},\"scale\":{\"type\":\"linear\",\"mode\":\"normal\"},\"labels\":{\"show\":true,\"rotate\":0,\"filter\":false,\"truncate\":100},\"title\":{\"text\":\"Jobs \"}}],\"seriesParams\":[{\"show\":true,\"type\":\"area\",\"mode\":\"stacked\",\"data\":{\"label\":\"Sum of Jobs\",\"id\":\"1\"},\"valueAxis\":\"ValueAxis-1\",\"drawLinesBetweenPoints\":true,\"lineWidth\":2,\"interpolate\":\"step-after\",\"showCircles\":true}],\"addTooltip\":true,\"addLegend\":true,\"legendPosition\":\"right\",\"times\":[],\"addTimeMarker\":false,\"labels\":{},\"thresholdLine\":{\"show\":false,\"value\":10,\"width\":1,\"style\":\"full\",\"color\":\"#E7664C\"},\"row\":false}}"},"id":"13e8dce0-7d26-11ec-8272-c5d9a5f0975f","migrationVersion":{"visualization":"7.10.0"},"references":[{"id":"3051bc00-7a09-11ec-8e72-eb1fcffe7c39","name":"kibanaSavedObjectMeta.searchSourceJSON.index","type":"index-pattern"},{"id":"3051bc00-7a09-11ec-8e72-eb1fcffe7c39","name":"kibanaSavedObjectMeta.searchSourceJSON.filter[0].meta.index","type":"index-pattern"}],"type":"visualization","updated_at":"2022-01-26T08:53:39.238Z","version":"WzQyMjQsMV0="}
{"attributes":{"description":"","kibanaSavedObjectMeta":{"searchSourceJSON":"{\"query\":{\"query\":\"\",\"language\":\"kuery\"},\"filter\":[{\"$state\":{\"store\":\"appState\"},\"meta\":{\"alias\":null,\"disabled\":false,\"key\":\"User\",\"negate\":false,\"params\":{\"query\":\"fstagni\"},\"type\":\"phrase\",\"indexRefName\":\"kibanaSavedObjectMeta.searchSourceJSON.filter[0].meta.index\"},\"query\":{\"match_phrase\":{\"User\":\"fstagni\"}}}],\"indexRefName\":\"kibanaSavedObjectMeta.searchSourceJSON.index\"}"},"title":"Jobs by fstagni","uiStateJSON":"{}","version":1,"visState":"{\"title\":\"Jobs by fstagni\",\"type\":\"line\",\"aggs\":[{\"id\":\"1\",\"enabled\":true,\"type\":\"sum\",\"params\":{\"field\":\"Jobs\"},\"schema\":\"metric\"},{\"id\":\"2\",\"enabled\":true,\"type\":\"date_histogram\",\"params\":{\"field\":\"timestamp\",\"timeRange\":{\"from\":\"2022-01-09T23:00:00.000Z\",\"to\":\"2022-01-16T23:00:00.000Z\"},\"useNormalizedEsInterval\":true,\"scaleMetricValues\":true,\"interval\":\"15m\",\"drop_partials\":false,\"min_doc_count\":1,\"extended_bounds\":{}},\"schema\":\"segment\"},{\"id\":\"3\",\"enabled\":true,\"type\":\"terms\",\"params\":{\"field\":\"User\",\"orderBy\":\"_key\",\"order\":\"desc\",\"size\":5,\"otherBucket\":false,\"otherBucketLabel\":\"Other\",\"missingBucket\":false,\"missingBucketLabel\":\"Missing\"},\"schema\":\"group\"}],\"params\":{\"type\":\"line\",\"grid\":{\"categoryLines\":false,\"valueAxis\":\"ValueAxis-1\"},\"categoryAxes\":[{\"id\":\"CategoryAxis-1\",\"type\":\"category\",\"position\":\"bottom\",\"show\":true,\"style\":{},\"scale\":{\"type\":\"linear\"},\"labels\":{\"show\":true,\"filter\":true,\"truncate\":100},\"title\":{}}],\"valueAxes\":[{\"id\":\"ValueAxis-1\",\"name\":\"LeftAxis-1\",\"type\":\"value\",\"position\":\"left\",\"show\":true,\"style\":{},\"scale\":{\"type\":\"linear\",\"mode\":\"normal\"},\"labels\":{\"show\":true,\"rotate\":0,\"filter\":false,\"truncate\":100},\"title\":{\"text\":\"Sum of Jobs\"}}],\"seriesParams\":[{\"show\":true,\"type\":\"area\",\"mode\":\"stacked\",\"data\":{\"label\":\"Sum of Jobs\",\"id\":\"1\"},\"valueAxis\":\"ValueAxis-1\",\"drawLinesBetweenPoints\":true,\"lineWidth\":2,\"interpolate\":\"step-after\",\"showCircles\":true}],\"addTooltip\":true,\"addLegend\":true,\"legendPosition\":\"right\",\"times\":[],\"addTimeMarker\":false,\"labels\":{},\"thresholdLine\":{\"show\":false,\"value\":10,\"width\":1,\"style\":\"full\",\"color\":\"#E7664C\"},\"row\":false}}"},"id":"97bbcfa0-7d26-11ec-bb0f-93c2814a29e5","migrationVersion":{"visualization":"7.10.0"},"references":[{"id":"3051bc00-7a09-11ec-8e72-eb1fcffe7c39","name":"kibanaSavedObjectMeta.searchSourceJSON.index","type":"index-pattern"},{"id":"3051bc00-7a09-11ec-8e72-eb1fcffe7c39","name":"kibanaSavedObjectMeta.searchSourceJSON.filter[0].meta.index","type":"index-pattern"}],"type":"visualization","updated_at":"2022-01-26T08:54:44.146Z","version":"WzQyNTIsMV0="}
{"attributes":{"description":"","kibanaSavedObjectMeta":{"searchSourceJSON":"{\"query\":{\"query\":\"\",\"language\":\"kuery\"},\"filter\":[],\"indexRefName\":\"kibanaSavedObjectMeta.searchSourceJSON.index\"}"},"title":"Piechart JobSplitType","uiStateJSON":"{}","version":1,"visState":"{\"title\":\"Piechart JobSplitType\",\"type\":\"pie\",\"aggs\":[{\"id\":\"1\",\"enabled\":true,\"type\":\"sum\",\"params\":{\"field\":\"Jobs\",\"customLabel\":\"Percentage by JobSplitType\"},\"schema\":\"metric\"},{\"id\":\"2\",\"enabled\":true,\"type\":\"terms\",\"params\":{\"field\":\"JobSplitType\",\"orderBy\":\"_key\",\"order\":\"desc\",\"size\":50,\"otherBucket\":false,\"otherBucketLabel\":\"Other\",\"missingBucket\":false,\"missingBucketLabel\":\"Missing\"},\"schema\":\"segment\"}],\"params\":{\"type\":\"pie\",\"addTooltip\":true,\"addLegend\":true,\"legendPosition\":\"right\",\"isDonut\":true,\"labels\":{\"show\":false,\"values\":true,\"last_level\":true,\"truncate\":100}}}"},"id":"768b61e0-7dc8-11ec-8e72-eb1fcffe7c39","migrationVersion":{"visualization":"7.10.0"},"references":[{"id":"3051bc00-7a09-11ec-8e72-eb1fcffe7c39","name":"kibanaSavedObjectMeta.searchSourceJSON.index","type":"index-pattern"}],"type":"visualization","updated_at":"2022-01-26T08:29:00.009Z","version":"WzM5MjAsMV0="}
{"attributes":{"description":"","kibanaSavedObjectMeta":{"searchSourceJSON":"{\"query\":{\"query\":\"\",\"language\":\"kuery\"},\"filter\":[],\"indexRefName\":\"kibanaSavedObjectMeta.searchSourceJSON.index\"}"},"title":"Jobs by JobSplitType","uiStateJSON":"{}","version":1,"visState":"{\"title\":\"Jobs by JobSplitType\",\"type\":\"line\",\"aggs\":[{\"id\":\"1\",\"enabled\":true,\"type\":\"sum\",\"params\":{\"field\":\"Jobs\"},\"schema\":\"metric\"},{\"id\":\"2\",\"enabled\":true,\"type\":\"date_histogram\",\"params\":{\"field\":\"timestamp\",\"timeRange\":{\"from\":\"2022-01-09T23:00:00.000Z\",\"to\":\"2022-01-16T23:00:00.000Z\"},\"useNormalizedEsInterval\":true,\"scaleMetricValues\":true,\"interval\":\"15m\",\"drop_partials\":false,\"min_doc_count\":1,\"extended_bounds\":{},\"customLabel\":\"Timestamp\"},\"schema\":\"segment\"},{\"id\":\"3\",\"enabled\":true,\"type\":\"terms\",\"params\":{\"field\":\"JobSplitType\",\"orderBy\":\"1\",\"order\":\"desc\",\"size\":100,\"otherBucket\":false,\"otherBucketLabel\":\"Other\",\"missingBucket\":false,\"missingBucketLabel\":\"Missing\"},\"schema\":\"group\"}],\"params\":{\"type\":\"line\",\"grid\":{\"categoryLines\":false,\"valueAxis\":\"ValueAxis-1\"},\"categoryAxes\":[{\"id\":\"CategoryAxis-1\",\"type\":\"category\",\"position\":\"bottom\",\"show\":true,\"style\":{},\"scale\":{\"type\":\"linear\"},\"labels\":{\"show\":true,\"filter\":true,\"truncate\":100},\"title\":{}}],\"valueAxes\":[{\"id\":\"ValueAxis-1\",\"name\":\"LeftAxis-1\",\"type\":\"value\",\"position\":\"left\",\"show\":true,\"style\":{},\"scale\":{\"type\":\"linear\",\"mode\":\"normal\"},\"labels\":{\"show\":true,\"rotate\":0,\"filter\":false,\"truncate\":100},\"title\":{\"text\":\"Jobs \"}}],\"seriesParams\":[{\"show\":true,\"type\":\"area\",\"mode\":\"stacked\",\"data\":{\"label\":\"Sum of Jobs\",\"id\":\"1\"},\"valueAxis\":\"ValueAxis-1\",\"drawLinesBetweenPoints\":true,\"lineWidth\":2,\"interpolate\":\"step-after\",\"showCircles\":true}],\"addTooltip\":true,\"addLegend\":true,\"legendPosition\":\"right\",\"times\":[],\"addTimeMarker\":false,\"labels\":{},\"thresholdLine\":{\"show\":false,\"value\":10,\"width\":1,\"style\":\"full\",\"color\":\"#E7664C\"},\"row\":false}}"},"id":"042db170-7d28-11ec-8e72-eb1fcffe7c39","migrationVersion":{"visualization":"7.10.0"},"references":[{"id":"3051bc00-7a09-11ec-8e72-eb1fcffe7c39","name":"kibanaSavedObjectMeta.searchSourceJSON.index","type":"index-pattern"}],"type":"visualization","updated_at":"2022-01-26T08:51:10.123Z","version":"WzQxODQsMV0="}
{"attributes":{"description":"","kibanaSavedObjectMeta":{"searchSourceJSON":"{\"query\":{\"query\":\"\",\"language\":\"kuery\"},\"filter\":[],\"indexRefName\":\"kibanaSavedObjectMeta.searchSourceJSON.index\"}"},"title":"Jobs by UserGroup","uiStateJSON":"{}","version":1,"visState":"{\"title\":\"Jobs by UserGroup\",\"type\":\"line\",\"aggs\":[{\"id\":\"1\",\"enabled\":true,\"type\":\"sum\",\"params\":{\"field\":\"Jobs\"},\"schema\":\"metric\"},{\"id\":\"2\",\"enabled\":true,\"type\":\"date_histogram\",\"params\":{\"field\":\"timestamp\",\"timeRange\":{\"from\":\"2022-01-09T23:00:00.000Z\",\"to\":\"2022-01-16T23:00:00.000Z\"},\"useNormalizedEsInterval\":true,\"scaleMetricValues\":true,\"interval\":\"15m\",\"drop_partials\":false,\"min_doc_count\":1,\"extended_bounds\":{},\"customLabel\":\"Timestamp\"},\"schema\":\"segment\"},{\"id\":\"3\",\"enabled\":true,\"type\":\"terms\",\"params\":{\"field\":\"UserGroup\",\"orderBy\":\"1\",\"order\":\"desc\",\"size\":100,\"otherBucket\":false,\"otherBucketLabel\":\"Other\",\"missingBucket\":false,\"missingBucketLabel\":\"Missing\",\"customLabel\":\"\"},\"schema\":\"group\"}],\"params\":{\"type\":\"line\",\"grid\":{\"categoryLines\":false,\"valueAxis\":\"ValueAxis-1\"},\"categoryAxes\":[{\"id\":\"CategoryAxis-1\",\"type\":\"category\",\"position\":\"bottom\",\"show\":true,\"style\":{},\"scale\":{\"type\":\"linear\"},\"labels\":{\"show\":true,\"filter\":true,\"truncate\":100},\"title\":{}}],\"valueAxes\":[{\"id\":\"ValueAxis-1\",\"name\":\"LeftAxis-1\",\"type\":\"value\",\"position\":\"left\",\"show\":true,\"style\":{},\"scale\":{\"type\":\"linear\",\"mode\":\"normal\"},\"labels\":{\"show\":true,\"rotate\":0,\"filter\":false,\"truncate\":100},\"title\":{\"text\":\"Jobs \"}}],\"seriesParams\":[{\"show\":true,\"type\":\"area\",\"mode\":\"stacked\",\"data\":{\"label\":\"Sum of Jobs\",\"id\":\"1\"},\"valueAxis\":\"ValueAxis-1\",\"drawLinesBetweenPoints\":true,\"lineWidth\":2,\"interpolate\":\"step-after\",\"showCircles\":true}],\"addTooltip\":true,\"addLegend\":true,\"legendPosition\":\"right\",\"times\":[],\"addTimeMarker\":false,\"labels\":{},\"thresholdLine\":{\"show\":false,\"value\":10,\"width\":1,\"style\":\"full\",\"color\":\"#E7664C\"},\"row\":false}}"},"id":"820f61a0-7d29-11ec-8e72-eb1fcffe7c39","migrationVersion":{"visualization":"7.10.0"},"references":[{"id":"3051bc00-7a09-11ec-8e72-eb1fcffe7c39","name":"kibanaSavedObjectMeta.searchSourceJSON.index","type":"index-pattern"}],"type":"visualization","updated_at":"2022-01-26T08:52:22.631Z","version":"WzQxOTcsMV0="}
{"attributes":{"description":"","kibanaSavedObjectMeta":{"searchSourceJSON":"{\"query\":{\"query\":\"\",\"language\":\"kuery\"},\"filter\":[],\"indexRefName\":\"kibanaSavedObjectMeta.searchSourceJSON.index\"}"},"title":"Jobs by Site","uiStateJSON":"{}","version":1,"visState":"{\"title\":\"Jobs by Site\",\"type\":\"line\",\"aggs\":[{\"id\":\"1\",\"enabled\":true,\"type\":\"sum\",\"params\":{\"field\":\"Jobs\"},\"schema\":\"metric\"},{\"id\":\"2\",\"enabled\":true,\"type\":\"date_histogram\",\"params\":{\"field\":\"timestamp\",\"timeRange\":{\"from\":\"2022-01-09T23:00:00.000Z\",\"to\":\"2022-01-16T23:00:00.000Z\"},\"useNormalizedEsInterval\":true,\"scaleMetricValues\":true,\"interval\":\"15m\",\"drop_partials\":false,\"min_doc_count\":1,\"extended_bounds\":{},\"customLabel\":\"Timestamp\"},\"schema\":\"segment\"},{\"id\":\"3\",\"enabled\":true,\"type\":\"terms\",\"params\":{\"field\":\"Site\",\"orderBy\":\"1\",\"order\":\"desc\",\"size\":100,\"otherBucket\":false,\"otherBucketLabel\":\"Other\",\"missingBucket\":false,\"missingBucketLabel\":\"Missing\"},\"schema\":\"group\"}],\"params\":{\"type\":\"line\",\"grid\":{\"categoryLines\":false,\"valueAxis\":\"ValueAxis-1\"},\"categoryAxes\":[{\"id\":\"CategoryAxis-1\",\"type\":\"category\",\"position\":\"bottom\",\"show\":true,\"style\":{},\"scale\":{\"type\":\"linear\"},\"labels\":{\"show\":true,\"filter\":true,\"truncate\":100},\"title\":{}}],\"valueAxes\":[{\"id\":\"ValueAxis-1\",\"name\":\"LeftAxis-1\",\"type\":\"value\",\"position\":\"left\",\"show\":true,\"style\":{},\"scale\":{\"type\":\"linear\",\"mode\":\"normal\"},\"labels\":{\"show\":true,\"rotate\":0,\"filter\":false,\"truncate\":100},\"title\":{\"text\":\"Jobs \"}}],\"seriesParams\":[{\"show\":true,\"type\":\"area\",\"mode\":\"stacked\",\"data\":{\"label\":\"Sum of Jobs\",\"id\":\"1\"},\"valueAxis\":\"ValueAxis-1\",\"drawLinesBetweenPoints\":true,\"lineWidth\":2,\"interpolate\":\"step-after\",\"showCircles\":true}],\"addTooltip\":true,\"addLegend\":true,\"legendPosition\":\"right\",\"times\":[],\"addTimeMarker\":false,\"labels\":{},\"thresholdLine\":{\"show\":false,\"value\":10,\"width\":1,\"style\":\"full\",\"color\":\"#E7664C\"},\"row\":false}}"},"id":"3af87cd0-7d28-11ec-8e72-eb1fcffe7c39","migrationVersion":{"visualization":"7.10.0"},"references":[{"id":"3051bc00-7a09-11ec-8e72-eb1fcffe7c39","name":"kibanaSavedObjectMeta.searchSourceJSON.index","type":"index-pattern"}],"type":"visualization","updated_at":"2022-01-26T08:53:04.789Z","version":"WzQyMTEsMV0="}
{"attributes":{"description":"","kibanaSavedObjectMeta":{"searchSourceJSON":"{\"query\":{\"query\":\"\",\"language\":\"kuery\"},\"filter\":[{\"$state\":{\"store\":\"appState\"},\"meta\":{\"alias\":null,\"disabled\":false,\"key\":\"MinorStatus\",\"negate\":true,\"params\":{\"query\":\"Application\"},\"type\":\"phrase\",\"indexRefName\":\"kibanaSavedObjectMeta.searchSourceJSON.filter[0].meta.index\"},\"query\":{\"match_phrase\":{\"MinorStatus\":\"Application\"}}}],\"indexRefName\":\"kibanaSavedObjectMeta.searchSourceJSON.index\"}"},"title":"Jobs by MinorStatus (w/o Application)","uiStateJSON":"{}","version":1,"visState":"{\"title\":\"Jobs by MinorStatus (w/o Application)\",\"type\":\"line\",\"aggs\":[{\"id\":\"1\",\"enabled\":true,\"type\":\"sum\",\"params\":{\"field\":\"Jobs\"},\"schema\":\"metric\"},{\"id\":\"2\",\"enabled\":true,\"type\":\"date_histogram\",\"params\":{\"field\":\"timestamp\",\"timeRange\":{\"from\":\"2022-01-09T23:00:00.000Z\",\"to\":\"2022-01-16T23:00:00.000Z\"},\"useNormalizedEsInterval\":true,\"scaleMetricValues\":true,\"interval\":\"15m\",\"drop_partials\":false,\"min_doc_count\":1,\"extended_bounds\":{},\"customLabel\":\"Timestamp\"},\"schema\":\"segment\"},{\"id\":\"3\",\"enabled\":true,\"type\":\"terms\",\"params\":{\"field\":\"MinorStatus\",\"orderBy\":\"1\",\"order\":\"desc\",\"size\":100,\"otherBucket\":false,\"otherBucketLabel\":\"Other\",\"missingBucket\":false,\"missingBucketLabel\":\"Missing\",\"customLabel\":\"\"},\"schema\":\"group\"}],\"params\":{\"type\":\"line\",\"grid\":{\"categoryLines\":false,\"valueAxis\":\"ValueAxis-1\"},\"categoryAxes\":[{\"id\":\"CategoryAxis-1\",\"type\":\"category\",\"position\":\"bottom\",\"show\":true,\"style\":{},\"scale\":{\"type\":\"linear\"},\"labels\":{\"show\":true,\"filter\":true,\"truncate\":100},\"title\":{}}],\"valueAxes\":[{\"id\":\"ValueAxis-1\",\"name\":\"LeftAxis-1\",\"type\":\"value\",\"position\":\"left\",\"show\":true,\"style\":{},\"scale\":{\"type\":\"linear\",\"mode\":\"normal\"},\"labels\":{\"show\":true,\"rotate\":0,\"filter\":false,\"truncate\":100},\"title\":{\"text\":\"Jobs \"}}],\"seriesParams\":[{\"show\":true,\"type\":\"area\",\"mode\":\"stacked\",\"data\":{\"label\":\"Sum of Jobs\",\"id\":\"1\"},\"valueAxis\":\"ValueAxis-1\",\"drawLinesBetweenPoints\":true,\"lineWidth\":2,\"interpolate\":\"step-after\",\"showCircles\":true}],\"addTooltip\":true,\"addLegend\":true,\"legendPosition\":\"right\",\"times\":[],\"addTimeMarker\":false,\"labels\":{},\"thresholdLine\":{\"show\":false,\"value\":10,\"width\":1,\"style\":\"full\",\"color\":\"#E7664C\"},\"row\":false}}"},"id":"94ed05f0-7d2b-11ec-8e72-eb1fcffe7c39","migrationVersion":{"visualization":"7.10.0"},"references":[{"id":"3051bc00-7a09-11ec-8e72-eb1fcffe7c39","name":"kibanaSavedObjectMeta.searchSourceJSON.index","type":"index-pattern"},{"id":"3051bc00-7a09-11ec-8e72-eb1fcffe7c39","name":"kibanaSavedObjectMeta.searchSourceJSON.filter[0].meta.index","type":"index-pattern"}],"type":"visualization","updated_at":"2022-01-26T14:30:32.959Z","version":"WzQ0MjYsMV0="}
{"attributes":{"description":"","kibanaSavedObjectMeta":{"searchSourceJSON":"{\"query\":{\"query\":\"\",\"language\":\"kuery\"},\"filter\":[{\"$state\":{\"store\":\"appState\"},\"meta\":{\"alias\":null,\"disabled\":false,\"key\":\"MinorStatus\",\"negate\":false,\"params\":{\"query\":\"Application\"},\"type\":\"phrase\",\"indexRefName\":\"kibanaSavedObjectMeta.searchSourceJSON.filter[0].meta.index\"},\"query\":{\"match_phrase\":{\"MinorStatus\":\"Application\"}}}],\"indexRefName\":\"kibanaSavedObjectMeta.searchSourceJSON.index\"}"},"title":"Jobs by MinorStatus: Application","uiStateJSON":"{}","version":1,"visState":"{\"title\":\"Jobs by MinorStatus: Application\",\"type\":\"line\",\"aggs\":[{\"id\":\"1\",\"enabled\":true,\"type\":\"sum\",\"params\":{\"field\":\"Jobs\"},\"schema\":\"metric\"},{\"id\":\"2\",\"enabled\":true,\"type\":\"date_histogram\",\"params\":{\"field\":\"timestamp\",\"timeRange\":{\"from\":\"2022-01-09T23:00:00.000Z\",\"to\":\"2022-01-16T23:00:00.000Z\"},\"useNormalizedEsInterval\":true,\"scaleMetricValues\":true,\"interval\":\"15m\",\"drop_partials\":false,\"min_doc_count\":1,\"extended_bounds\":{},\"customLabel\":\"Timestamp\"},\"schema\":\"segment\"},{\"id\":\"3\",\"enabled\":true,\"type\":\"terms\",\"params\":{\"field\":\"MinorStatus\",\"orderBy\":\"1\",\"order\":\"desc\",\"size\":100,\"otherBucket\":false,\"otherBucketLabel\":\"Other\",\"missingBucket\":false,\"missingBucketLabel\":\"Missing\",\"customLabel\":\"\"},\"schema\":\"group\"}],\"params\":{\"type\":\"line\",\"grid\":{\"categoryLines\":false,\"valueAxis\":\"ValueAxis-1\"},\"categoryAxes\":[{\"id\":\"CategoryAxis-1\",\"type\":\"category\",\"position\":\"bottom\",\"show\":true,\"style\":{},\"scale\":{\"type\":\"linear\"},\"labels\":{\"show\":true,\"filter\":true,\"truncate\":100},\"title\":{}}],\"valueAxes\":[{\"id\":\"ValueAxis-1\",\"name\":\"LeftAxis-1\",\"type\":\"value\",\"position\":\"left\",\"show\":true,\"style\":{},\"scale\":{\"type\":\"linear\",\"mode\":\"normal\"},\"labels\":{\"show\":true,\"rotate\":0,\"filter\":false,\"truncate\":100},\"title\":{\"text\":\"Jobs \"}}],\"seriesParams\":[{\"show\":true,\"type\":\"area\",\"mode\":\"stacked\",\"data\":{\"label\":\"Sum of Jobs\",\"id\":\"1\"},\"valueAxis\":\"ValueAxis-1\",\"drawLinesBetweenPoints\":true,\"lineWidth\":2,\"interpolate\":\"step-after\",\"showCircles\":true}],\"addTooltip\":true,\"addLegend\":true,\"legendPosition\":\"right\",\"times\":[],\"addTimeMarker\":false,\"labels\":{},\"thresholdLine\":{\"show\":false,\"value\":10,\"width\":1,\"style\":\"full\",\"color\":\"#E7664C\"},\"row\":false}}"},"id":"f1d69380-7d2b-11ec-8e72-eb1fcffe7c39","migrationVersion":{"visualization":"7.10.0"},"references":[{"id":"3051bc00-7a09-11ec-8e72-eb1fcffe7c39","name":"kibanaSavedObjectMeta.searchSourceJSON.index","type":"index-pattern"},{"id":"3051bc00-7a09-11ec-8e72-eb1fcffe7c39","name":"kibanaSavedObjectMeta.searchSourceJSON.filter[0].meta.index","type":"index-pattern"}],"type":"visualization","updated_at":"2022-01-26T14:30:55.928Z","version":"WzQ0MzksMV0="}
{"attributes":{"description":"","hits":0,"kibanaSavedObjectMeta":{"searchSourceJSON":"{\"query\":{\"language\":\"kuery\",\"query\":\"\"},\"filter\":[{\"$state\":{\"store\":\"appState\"},\"meta\":{\"alias\":null,\"controlledBy\":\"1643018695294\",\"disabled\":false,\"key\":\"Status\",\"negate\":false,\"params\":{\"query\":\"Running\"},\"type\":\"phrase\",\"indexRefName\":\"kibanaSavedObjectMeta.searchSourceJSON.filter[0].meta.index\"},\"query\":{\"match_phrase\":{\"Status\":\"Running\"}}}]}"},"optionsJSON":"{\"hidePanelTitles\":false,\"useMargins\":true}","panelsJSON":"[{\"embeddableConfig\":{},\"gridData\":{\"h\":8,\"i\":\"b74f36b8-5323-41cf-94f3-562f66972c4c\",\"w\":13,\"x\":0,\"y\":0},\"panelIndex\":\"b74f36b8-5323-41cf-94f3-562f66972c4c\",\"version\":\"7.10.2\",\"panelRefName\":\"panel_0\"},{\"embeddableConfig\":{\"hidePanelTitles\":false,\"title\":\"Number of Jobs per Status\"},\"gridData\":{\"h\":8,\"i\":\"f2a7b1a4-e42c-4fe1-86f9-9ffbf4f0ba95\",\"w\":35,\"x\":13,\"y\":0},\"panelIndex\":\"f2a7b1a4-e42c-4fe1-86f9-9ffbf4f0ba95\",\"title\":\"Number of Jobs per Status\",\"version\":\"7.10.2\",\"panelRefName\":\"panel_1\"},{\"embeddableConfig\":{\"hidePanelTitles\":false,\"title\":\"Jobs by User (w/o fstagni)\"},\"gridData\":{\"h\":21,\"i\":\"58408a31-512f-4bb8-9674-225f315a841d\",\"w\":31,\"x\":0,\"y\":8},\"panelIndex\":\"58408a31-512f-4bb8-9674-225f315a841d\",\"title\":\"Jobs by User (w/o fstagni)\",\"version\":\"7.10.2\",\"panelRefName\":\"panel_2\"},{\"embeddableConfig\":{},\"gridData\":{\"h\":21,\"i\":\"b54bceb0-6361-4610-8400-083a9b1c9c53\",\"w\":17,\"x\":31,\"y\":8},\"panelIndex\":\"b54bceb0-6361-4610-8400-083a9b1c9c53\",\"version\":\"7.10.2\",\"panelRefName\":\"panel_3\"},{\"embeddableConfig\":{\"hidePanelTitles\":false,\"title\":\"Percentage by JobSplitType\"},\"gridData\":{\"h\":21,\"i\":\"7f0cd1f2-82e6-4ab8-a44a-8d503b0ab59a\",\"w\":20,\"x\":0,\"y\":29},\"panelIndex\":\"7f0cd1f2-82e6-4ab8-a44a-8d503b0ab59a\",\"title\":\"Percentage by JobSplitType\",\"version\":\"7.10.2\",\"panelRefName\":\"panel_4\"},{\"embeddableConfig\":{},\"gridData\":{\"h\":21,\"i\":\"b2b1a814-2b06-4591-9934-4f965b0e8252\",\"w\":28,\"x\":20,\"y\":29},\"panelIndex\":\"b2b1a814-2b06-4591-9934-4f965b0e8252\",\"version\":\"7.10.2\",\"panelRefName\":\"panel_5\"},{\"embeddableConfig\":{},\"gridData\":{\"h\":21,\"i\":\"99a5e30c-d38d-43da-8d55-7d21c42ebc79\",\"w\":24,\"x\":0,\"y\":50},\"panelIndex\":\"99a5e30c-d38d-43da-8d55-7d21c42ebc79\",\"version\":\"7.10.2\",\"panelRefName\":\"panel_6\"},{\"embeddableConfig\":{},\"gridData\":{\"h\":21,\"i\":\"de3f63a9-980f-4b4e-8b4c-d01184a0135c\",\"w\":24,\"x\":24,\"y\":50},\"panelIndex\":\"de3f63a9-980f-4b4e-8b4c-d01184a0135c\",\"version\":\"7.10.2\",\"panelRefName\":\"panel_7\"},{\"embeddableConfig\":{},\"gridData\":{\"h\":21,\"i\":\"a51cb8f6-c75c-48a6-97d8-45ca43d471a4\",\"w\":31,\"x\":0,\"y\":71},\"panelIndex\":\"a51cb8f6-c75c-48a6-97d8-45ca43d471a4\",\"version\":\"7.10.2\",\"panelRefName\":\"panel_8\"},{\"embeddableConfig\":{\"hidePanelTitles\":false},\"gridData\":{\"h\":21,\"i\":\"955498c7-687f-46b3-8c33-33deb4d4f73c\",\"w\":17,\"x\":31,\"y\":71},\"panelIndex\":\"955498c7-687f-46b3-8c33-33deb4d4f73c\",\"version\":\"7.10.2\",\"panelRefName\":\"panel_9\"}]","timeRestore":false,"title":"WMSDashboard-LHCb","version":1},"id":"85e68be0-7d2a-11ec-8e72-eb1fcffe7c39","migrationVersion":{"dashboard":"7.9.3"},"references":[{"id":"3051bc00-7a09-11ec-8e72-eb1fcffe7c39","name":"kibanaSavedObjectMeta.searchSourceJSON.filter[0].meta.index","type":"index-pattern"},{"id":"54e24d90-7cfd-11ec-bb0f-93c2814a29e5","name":"panel_0","type":"visualization"},{"id":"f6c07830-7d2a-11ec-8e72-eb1fcffe7c39","name":"panel_1","type":"visualization"},{"id":"13e8dce0-7d26-11ec-8272-c5d9a5f0975f","name":"panel_2","type":"visualization"},{"id":"97bbcfa0-7d26-11ec-bb0f-93c2814a29e5","name":"panel_3","type":"visualization"},{"id":"768b61e0-7dc8-11ec-8e72-eb1fcffe7c39","name":"panel_4","type":"visualization"},{"id":"042db170-7d28-11ec-8e72-eb1fcffe7c39","name":"panel_5","type":"visualization"},{"id":"820f61a0-7d29-11ec-8e72-eb1fcffe7c39","name":"panel_6","type":"visualization"},{"id":"3af87cd0-7d28-11ec-8e72-eb1fcffe7c39","name":"panel_7","type":"visualization"},{"id":"94ed05f0-7d2b-11ec-8e72-eb1fcffe7c39","name":"panel_8","type":"visualization"},{"id":"f1d69380-7d2b-11ec-8e72-eb1fcffe7c39","name":"panel_9","type":"visualization"}],"type":"dashboard","updated_at":"2022-01-27T13:40:43.618Z","version":"WzQ1MjIsMV0="}
{"exportedCount":12,"missingRefCount":0,"missingReferences":[]}
